%YAML 1.1
%TAG !u! tag:unity3d.com,2011:
--- !u!114 &11400000
MonoBehaviour:
  m_ObjectHideFlags: 0
  m_CorrespondingSourceObject: {fileID: 0}
  m_PrefabInstance: {fileID: 0}
  m_PrefabAsset: {fileID: 0}
  m_GameObject: {fileID: 0}
  m_Enabled: 1
  m_EditorHideFlags: 0
  m_Script: {fileID: 11500000, guid: ac1b9e0fd8146e748b89e09d585939fe, type: 3}
  m_Name: Robot1_Change Color
  m_EditorClassIdentifier: 
  Duration: 1
  Color: {r: 1, g: 0.95839036, b: 0, a: 1}
